{
    "*****************INFO******************" : "",
    "SERIAL_NUMBER": "1234567890123456",
    "SP_FW_VERSION": "WZ_V2.60_L0P1_201127 SP_BOOT_PV1.04",
    "PCI": "6.1",
    "FW_VERSION": "V0001",
    "PRODUCT_NAME": "GPOS760",
    "EMV_L1": "V1.0",
    "CL_KERNEL": "1.0.0",
    "CL_AEP": "V110",
    "CL_MPP": "V110",
    "CL_VPW": ".",
    "EMV_L2": "V211",
    "HW": "1.0.0",
    "CL_DDP": ".",
    "CL_PURE": ".",
    "ImgVersionNumber": "300",
	
    "*****************GENERAL******************" : "",
    "GEDI_VERSION": "0.18.5-230410",

    "*****************KMS******************" : "",
    "RET_AES32_Savekey": "GEDI_RET_OK",
    "RET_AES32_PresenceTest": "GEDI_RET_OK",
    "RET_Savekey_Enhanced": "GEDI_RET_KMS_ERROR",
    "RET_Savekey_Enhanced_DES": "GEDI_RET_NOT_SUPPORTED",

    "*****************PM******************" : "",
    "RET_UpdateFromFile1": "GEDI_RET_PM_INSTALL_FAILED_TEST_ONLY",
    "RET_UpdateFromFile2": "GEDI_RET_PM_INSTALL_FAILED_TEST_ONLY",
    "RET_UpdateFromFile3": "GEDI_RET_PM_INSTALL_FAILED_VERSION_DOWNGRADE",
    "RET_UpdateFromFile4": "GEDI_RET_PM_INSTALL_PARSE_FAILED_NO_CERTIFICATES",
    "DEFAULT_LAUCHER": "com.android.launcher3",

    "*****************PRNTR******************" : "",
    "RET_CODABAR": "GEDI_RET_OK",
    "RET_CODE39": "GEDI_RET_OK",
    "RET_ITF": "GEDI_RET_OK",
    "RET_MAXICODE": "GEDI_RET_OK",
    "RET_RSS14": "GEDI_RET_OK",
    "RET_RSSEXPANDED": "GEDI_RET_OK",
    "RET_UPCA": "GEDI_RET_OK",
    "RET_UPCE": "GEDI_RET_OK",
    "RET_EAN_EXTENSION": "GEDI_RET_OK"
	
}