{
  "id": "GPOS700_GENERAL_TESTS",
  "name": "GPOS700_GENERAL_TESTS.project",
  "description": "GEDI Compatibility to device",
  "override_user_confirm": false,
  "scripts": [
    {
      "id": "GENERAL_TESTS",
      "name": "GENERAL_TESTS",
      "break_setup": false,
      "break_message": "",
      "description": "Script to cover GEDI Tests",
      "features": [
        {
          "path": "features/versionget.feature.json"
        },
        {
          "path": "features/ikms.feature.json"
        },
        {
          "path": "features/iaudio.feature.json"
        },
        {
          "path": "features/iclock.feature.json"
        },
        {
          "path": "features/icrypt.feature.json"
        },
        {
          "path": "features/iinfo.feature.json"
        },
        {
          "path": "features/iled.feature.json"
        },
        {
          "path": "features/ismart.feature.json"
        },
        {
          "path": "features/icl.feature.json"
        },
        {
          "path": "features/ipm.feature.json"
        },
        {
          "path": "features/imsr.feature.json"
        }
      ]
    }
  ]
}