{
  "id": "IMSR_Read e IMSR_LastErrorGet_T2_OK_e_T3_com_erro_no_LRC",
  "name": "IMSR_Read e IMSR_LastErrorGet_T2_OK_e_T3_com_erro_no_LRC.scenario",
  "description": "It reads a magnetic card",
  "steps": [
    {
      "id": "1 IMSR_Read",
      "name": "1 IMSR_Read",
      "user_confirm": true,
      "is_loop": false,
      "loop_count": 0,
      "loop_sleep": 0,
      "description": "**In the next step, you should pass the card MAGGEN04**",
      "cmd_id": "IMSR_Read",
      "result": "GEDI_RET_MSR_NO_SWIPE",
      "params": [

      ]
    },
    {
      "id": "2 IMSR_Read",
      "name": "2 IMSR_Read",
      "user_confirm": false,
      "timeout_step": 30,
      "is_loop": true,
      "loop_count": 5,
      "loop_sleep": 1,
      "description": "**Pass the card MAGGEN04**",
      "cmd_id": "IMSR_Read",
      "result": "GEDI_RET_OK",
      "params": [
        {
          "name": "abTk1Buf",
          "value_in": "",
		      "value_out": "",
          "type": "OUT",
          "use_regex": false
        },
        {
          "name": "abTk2Buf",
          "value_in": "",
		      "value_out": "363736333533373135313939333030383D3439303135303235323435323532353039383135",
          "type": "OUT",
          "use_regex": false
        },
        {
          "name": "abTk3Buf",
          "value_in": "",
		      "value_out": "",
          "type": "OUT",
          "use_regex": false
        }
      ]
    },
    {
      "id": "3 IMSR_LastErrorGet",
      "name": "3 IMSR_LastErrorGet",
      "user_confirm": false,
      "is_loop": false,
      "loop_count": 5,
      "loop_sleep": 2,
      "description": "**It returns a error after the passed card**",    
      "cmd_id": "IMSR_LastErrorGet",
      "result": "GEDI_RET_OK",
      "params": [
        {
          "name": "peTk1Err",
          "value_in": "",
		      "value_out": "8|2",
          "type": "OUT",
          "use_regex": true
        },
        {
          "name": "peTk2Err",
          "value_in": "",
          "value_out": "0",
		      "type": "OUT",
          "use_regex": false
        },
        {
          "name": "peTk3Err",
          "value_in": "",
		      "value_out": "6|2|1|8",
          "type": "OUT",
          "use_regex": true
        }
      ]
    }
  ]
}