{
  "id": "IPM_getFactoryKey",
  "description": "Get Factory Key",
  "name": "IPM_getFactoryKey",
  "flags": [
    "GPOS720"
  ],
  "steps": [
    {
      "id": "IPM_getFactoryKey",
      "name": "IPM_getFactoryKey",
      "user_confirm": false,
      "is_loop": false,
      "loop_count": 0,
      "loop_sleep": 0,
      "description": "Get Factory Key",
      "cmd_id": "IPM_getFactoryKey",
      "result": "GEDI_RET_OK",
      "params": [
        {
          "name": "cert",
          "value_in": ".*",
          "value_out": "",
          "type": "OUT",
          "use_regex": true
        }
      ]
    }
  ]
}