{
  "id": "1 IPM_ApDelete",
  "description": "It erases an installed application. **** Before the test, get the necessary resources from Q:/Tecnologia/QA/Ferramentas/Android/Recursos-Padawan ****",
  "name": "1 IPM_ApDelete",
  "steps": [
    {
      "id": "1-PM_UpdateFromFile",
      "name": "1-PM_UpdateFromFile",
      "user_confirm": false,
      "is_loop": false,
      "loop_count": 20,
      "loop_sleep": 20,
      "description": "In the Custumer key, an error must be expected",
      "cmd_id": "IPM_UpdateFromFile",
      "result": "GEDI_RET_PM_ERROR",
      "params": [
        {
          "name": "szFileName",
          "value_in": "/storage/emulated/0/nfctools.apk",
          "value_out": "",
          "type": "IN",
          "use_regex": false
        },
        {
          "name": "eStorage",
          "value_in": "3",
          "value_out": "",
          "type": "IN",
          "use_regex": false
        }
      ]
    },
    {
      "id": "2-IPM_ApDelete",
      "name": "2-IPM_ApDelete",
      "user_confirm": false,
      "is_loop": false,
      "loop_count": 0,
      "loop_sleep": 0,
      "description": "In the Custumer key, an error must be expected",
      "cmd_id": "IPM_ApDelete",
      "result": "GEDI_RET_PM_ERROR",
      "params": [
        {
          "name": "szApName",
          "value_in": "com.wakdev.wdnfc",
		      "value_out": "",
          "type": "IN",
          "use_regex": false
        }
      ]
    }
  ]
}