{
  "id": "PM_GetNameCrt",
  "description": "Get certificate name",
  "name": "PM_GetNameCrt",
  "flags": [
    "GPOS720",
    "GPOS780"
  ],
  "steps": [
    {
      "id": "1-PM_GetNameCrt",
      "name": "PM_GetNameCrt",
      "user_confirm": false,
      "is_loop": false,
      "loop_count": 0,
      "loop_sleep": 0,
      "description": "Get certificate name",
      "cmd_id": "IPM_GetNameCrt",
      "result": "GEDI_RET_PM_ERROR",
      "params": [
        {
          "name": "eType",
          "value_in": "1",
          "value_out": "",
          "type": "IN",
          "use_regex": true
        }
      ]
    },
    {
      "id": "2-PM_GetNameCrt",
      "name": "PM_GetNameCrt",
      "user_confirm": false,
      "is_loop": false,
      "loop_count": 0,
      "loop_sleep": 0,
      "description": "Get certificate name",
      "cmd_id": "IPM_GetNameCrt",
      "result": "GEDI_RET_PM_ERROR",
      "params": [
        {
          "name": "eType",
          "value_in": "2",
          "value_out": "",
          "type": "IN",
          "use_regex": true
        }
      ]
    },
    {
      "id": "3-PM_GetNameCrt",
      "name": "PM_GetNameCrt",
      "user_confirm": false,
      "is_loop": false,
      "loop_count": 0,
      "loop_sleep": 0,
      "description": "Get certificate name",
      "cmd_id": "IPM_GetNameCrt",
      "result": "GEDI_RET_PM_ERROR",
      "params": [
        {
          "name": "eType",
          "value_in": "3",
          "value_out": "",
          "type": "IN",
          "use_regex": true
        }
      ]
    }
  ]
}