{
  "id": "IAUDIO_BeepFreq",
  "name": "IAUDIO_BeepFreq.scenario",
  "description": "Test of command AUDIO BEEP. The device should emit a BEEP sound with freq and duration *** Teste exclusive for product Feitian ***",
  "flags": [
    "GPOS720"
  ],
  "steps": [
    {
      "id": "02 - IAUDIO_Beep",
      "name": "02 - IAUDIO_Beep",
      "user_confirm": true,
      "is_loop": false,
      "loop_count": 0,
      "loop_sleep": 0,
      "description": "**Did you listen a BEEP by your device?**",
      "cmd_id": "IAUDIO_BEEP",
      "result": "GEDI_RET_OK",
      "params": [
        {
          "name": "Freq",
          "value_in": "5000",
          "value_out": "",
          "type": "IN",
          "use_regex": false
        },
        {
          "name": "time",
          "value_in": "45",
          "value_out": "",
          "type": "IN",
          "use_regex": false
        }
      ]
    }
  ]
}