{
  "id": "IINFO_ModuleVersionGet",
  "description": "It get list of available modules of device",
  "name": "IINFO_ModuleVersionGet.scenario",
  "steps": [
    {
      "id": "1 IINFO_ModuleVersionGet",
      "name": "1 IINFO_ModuleVersionGet",
      "user_confirm": false,
      "is_loop": false,
      "loop_count": 1,
      "loop_sleep": 1,
      "description": "It get list of available modules of device",
      "cmd_id": "IINFO_ModuleVersionGet",
      "result": "GEDI_RET_OK",
      "params": [
        {
          "name": "eModule",
          "value_in": "0",
          "value_out": "",
          "type": "IN",
          "use_regex": true
        },
        {
          "name": "szVersion",
          "value_in": "",
          "value_out": "$PCI",
          "type": "OUT",
          "use_regex": true
        }
      ]
    },
    {
      "id": "2-IINFO_ModuleVersionGet",
      "name": "2-IINFO_ModuleVersionGet",
      "user_confirm": false,
      "is_loop": false,
      "loop_count": 1,
      "loop_sleep": 1,
      "description": "It get list of available modules of device",
      "cmd_id": "IINFO_ModuleVersionGet",
      "result": "GEDI_RET_OK",
      "params": [
        {
          "name": "eModule",
          "value_in": "1",
          "value_out": "",
          "type": "IN",
          "use_regex": true
        },
        {
          "name": "szVersion",
          "value_in": "",
          "value_out": "$EMV_L1",
          "type": "OUT",
          "use_regex": true
        }
      ]
    },
    {
      "id": "3-IINFO_ModuleVersionGet",
      "name": "3-IINFO_ModuleVersionGet",
      "user_confirm": false,
      "is_loop": false,
      "loop_count": 1,
      "loop_sleep": 1,
      "description": "It get list of available modules of device",
      "cmd_id": "IINFO_ModuleVersionGet",
      "result": "GEDI_RET_NOT_AVAILABLE",
      "params": [
        {
          "name": "eModule",
          "value_in": "2",
          "value_out": "",
          "type": "IN",
          "use_regex": true
        }
      ]
    },
    {
      "id": "4-IINFO_ModuleVersionGet",
      "name": "4-IINFO_ModuleVersionGet",
      "user_confirm": false,
      "is_loop": false,
      "loop_count": 1,
      "loop_sleep": 1,
      "description": "It get list of available modules of device",
      "cmd_id": "IINFO_ModuleVersionGet",
      "result": "GEDI_RET_NOT_AVAILABLE",
      "params": [
        {
          "name": "eModule",
          "value_in": "3",
          "value_out": "",
          "type": "IN",
          "use_regex": true
        }
      ]
    },
    {
      "id": "5-IINFO_ModuleVersionGet",
      "name": "5-IINFO_ModuleVersionGet",
      "user_confirm": false,
      "is_loop": false,
      "loop_count": 1,
      "loop_sleep": 1,
      "description": "It get list of available modules of device",
      "cmd_id": "IINFO_ModuleVersionGet",
      "result": "GEDI_RET_NOT_AVAILABLE",
      "params": [
        {
          "name": "eModule",
          "value_in": "4",
          "value_out": "",
          "type": "IN",
          "use_regex": true
        }
      ]
    },
    {
      "id": "6-IINFO_ModuleVersionGet",
      "name": "6-IINFO_ModuleVersionGet",
      "user_confirm": false,
      "is_loop": false,
      "loop_count": 1,
      "loop_sleep": 1,
      "description": "It get list of available modules of device",
      "cmd_id": "IINFO_ModuleVersionGet",
      "result": "GEDI_RET_NOT_AVAILABLE",
      "params": [
        {
          "name": "eModule",
          "value_in": "5",
          "value_out": "",
          "type": "IN",
          "use_regex": true
        }
      ]
    },
    {
      "id": "7-IINFO_ModuleVersionGet",
      "name": "7-IINFO_ModuleVersionGet",
      "user_confirm": false,
      "is_loop": false,
      "loop_count": 1,
      "loop_sleep": 1,
      "description": "It get list of available modules of device",
      "cmd_id": "IINFO_ModuleVersionGet",
      "result": "GEDI_RET_NOT_AVAILABLE",
      "params": [
        {
          "name": "eModule",
          "value_in": "9",
          "value_out": "",
          "type": "IN",
          "use_regex": true
        }
      ]
    },
    {
      "id": "8-IINFO_ModuleVersionGet",
      "name": "8-IINFO_ModuleVersionGet",
      "user_confirm": false,
      "is_loop": false,
      "loop_count": 1,
      "loop_sleep": 1,
      "description": "It get list of available modules of device",
      "cmd_id": "IINFO_ModuleVersionGet",
      "result": "GEDI_RET_NOT_AVAILABLE",
      "params": [
        {
          "name": "eModule",
          "value_in": "9",
          "value_out": "",
          "type": "IN",
          "use_regex": true
        }
      ]
    },
    {
      "id": "9-IINFO_ModuleVersionGet",
      "name": "9-IINFO_ModuleVersionGet",
      "user_confirm": false,
      "is_loop": false,
      "loop_count": 1,
      "loop_sleep": 1,
      "description": "It get list of available modules of device",
      "cmd_id": "IINFO_ModuleVersionGet",
      "result": "GEDI_RET_OK",
      "params": [
        {
          "name": "eModule",
          "value_in": "10",
          "value_out": "",
          "type": "IN",
          "use_regex": true
        },
        {
          "name": "szVersion",
          "value_in": "",
          "value_out": "$HW",
          "type": "OUT",
          "use_regex": true
        }
      ]
    },
    {
      "id": "10-IINFO_ModuleVersionGet",
      "name": "10-IINFO_ModuleVersionGet",
      "user_confirm": false,
      "is_loop": false,
      "loop_count": 1,
      "loop_sleep": 1,
      "description": "It get list of available modules of device",
      "cmd_id": "IINFO_ModuleVersionGet",
      "result": "GEDI_RET_NOT_AVAILABLE",
      "params": [
        {
          "name": "eModule",
          "value_in": "11",
          "value_out": "",
          "type": "IN",
          "use_regex": true
        }
      ]
    },
    {
      "id": "11-IINFO_ModuleVersionGet",
      "name": "11-IINFO_ModuleVersionGet",
      "user_confirm": false,
      "is_loop": false,
      "loop_count": 1,
      "loop_sleep": 1,
      "description": "It get list of available modules of device",
      "cmd_id": "IINFO_ModuleVersionGet",
      "result": "GEDI_RET_NOT_AVAILABLE",
      "params": [
        {
          "name": "eModule",
          "value_in": "12",
          "value_out": "",
          "type": "IN",
          "use_regex": true
        }
      ]
    }
  ]
}