{
  "id": "IINFO_ImgVersionNumberGet",
  "description": "Returns the version number of the image",
  "name": "IINFO_ImgVersionNumberGet",
  "flags": [

  ],
  "steps": [
    {
      "id": "1 IINFO_ImgVersionNumberGet",
      "name": "1 IINFO_ImgVersionNumberGet",
      "user_confirm": false,
      "is_loop": false,
      "loop_count": 0,
      "loop_sleep": 0,
      "description": "Returns the version number of the image only without build date and values",
      "cmd_id": "IINFO_ImgVersionNumberGet",
      "result": "GEDI_RET_OK",
      "params": [
        {
          "name": "ImgVersionNumber",
          "value_in":"",
          "value_out": "$ImgVersionNumber",
          "type": "OUT",
          "use_regex": false
        }
      ]
    }
  ]
}
