{
  "id": "IINFO_Tamper",
  "description": "Enable and get status Tamper",
  "name": "IINFO_Tamper",
  "flags": [

  ],
  "steps": [
    {
      "id": "1 IINFO_EnableTamper",
      "name": "1 IINFO_EnableTamper",
      "user_confirm": false,
      "is_loop": false,
      "loop_count": 0,
      "loop_sleep": 0,
      "description": "Enable Tamper if it's disabled.",
      "cmd_id": "IINFO_EnableTamper",
      "result": "GEDI_RET_OK",
      "params": [
        {
          "name": "Enable_Tamper",
          "value_in":"",
          "value_out": "0",
          "type": "OUT",
          "use_regex": false
        }
      ]
    },
    {
      "id": "1 IINFO_TamperStatusGet",
      "name": "1 IINFO_TamperStatusGet",
      "user_confirm": false,
      "is_loop": false,
      "loop_count": 0,
      "loop_sleep": 0,
      "description": "Tamper Status Get. *** Se voltar GEDI_RET_TEST_FAIL o terminal não esta em Tamper, se voltar GEDI_RET_Ok o terminal esta em tamper***",
      "cmd_id": "IINFO_TamperStatusGet",
      "result": "GEDI_RET_TEST_FAIL",
      "params": [
       
      ]
    }
  ]
}
