{
  "id": "16-IPRNTR_DrawBarCode",
  "name": "16-IPRNTR_DrawBarCode",
  "description": "It printers a bar code on the printer virtual canvas.",
  "steps": [
    {
      "id": "16-IPRNTR_Init",
      "name": "16-IPRNTR_Init",
      "description": "It initializes the printer of device.",
      "user_confirm": false,
      "is_loop": false,
      "loop_count": 0,
      "loop_sleep": 0,
      "cmd_id": "IPRNTR_Init",
      "result": "GEDI_RET_OK",
      "params": []
    },
    {
      "id": "16-IPRNTR_DrawBarCode(UPC_E)",
      "name": "16-IPRNTR_DrawBarCode(UPC_E)",
      "description": "It draws bar code on printer virtual canvas",
      "user_confirm": false,
      "is_loop": false,
      "loop_count": 0,
      "loop_sleep": 0,
      "cmd_id": "IPRNTR_DrawBarCode",
      "result": "GEDI_RET_OK",
      "params": [
        {
          "name": "type",
          "value_in": "15",
          "value_out": "",
          "type": "IN",
          "use_regex": false
        },        
        {
          "name": "hegith",
          "value_in": "100",
          "value_out": "",
          "type": "IN",
          "use_regex": false
        },
        {
          "name": "whiteSpace",
          "value_in": "40",
          "value_out": "",
          "type": "IN",
          "use_regex": false
        },
        {
          "name": "width",
         "value_in": "150",
          "value_out": "",
          "type": "IN",
          "use_regex": false
        },
        {
          "name": "message",
          "value_in": "1234567",
          "value_out": "",
          "type": "IN",
          "use_regex": false
        }
      ]
    },
    {
     "id": "16-IPRNTR_Output",
     "name": "16-IPRNTR_Output",
     "description": "It printers what it was written before",
     "user_confirm": false,
     "is_loop": false,
     "loop_count": 0,
     "loop_sleep": 0,
     "cmd_id": "IPRNTR_Output",
     "result": "$RET_UPCE",
     "params": []
   },
    {
       "id": "16-IPRNTR_DrawBlankLine",
       "name": "16-IPRNTR_DrawBlankLine",
       "description": "It draws a blank line on printer virtual canvas.",
       "user_confirm": false,
       "is_loop": false,
       "loop_count": 0,
       "loop_sleep": 0,
       "cmd_id": "IPRNTR_DrawBlankLine",
       "result": "GEDI_RET_OK",
       "params": [
         {
           "name": "var",
          "value_in": "150",
           "value_out": "",
           "type": "IN",
           "use_regex": false
         }
       ]
     },
     {
      "id": "66-IPRNTR_Output",
      "name": "66-IPRNTR_Output",
      "description": "Check. Has the UPC_E code been printed?",
      "user_confirm": true,
      "is_loop": false,
      "loop_count": 0,
      "loop_sleep": 0,
      "cmd_id": "IPRNTR_Output",
      "result": "GEDI_RET_OK",
      "params": []
    }
  ]
}