{
    "port": "COM11",
    "baud_rate": "19200",
    "bytesize": 8,
    "timeout": 5,
    "remote_git_url":"",
    "remote_branch":"",
    "local_repo_path":"",
    "username":"",
    "password": ""
}