{
  "id": "ICRYPT_SHA1",
  "description": "It executes an operation of SHA1 encryption",
  "name": "ICRYPT_SHA1.scenario",
  "steps": [
    {
      "id": "1 ICRYPT_SHA1",
      "name": "1 ICRYPT_SHA1",
      "user_confirm": false,
      "is_loop": false,
      "loop_count": 0,
      "loop_sleep": 0,
      "description": "It executes an operation of SHA1 encryption",
      "cmd_id": "ICRYPT_SHA1",
      "result": "GEDI_RET_OK",
      "params": [
        {
          "name": "abData",
          "value_in": "1234567890ABCDEF",
          "value_out": "0",
          "type": "IN",
          "use_regex": false
        },
        {
          "name": "abResult",
          "value_in": "0",
          "value_out": "699FB291AF1B60327B8807FDCF384191B0AFB631",
          "type": "OUT",
          "use_regex": false
        }
      ]
    }
  ]
}