{
  "id": "ICRYPT_RNG",
  "description": "It generates random numbers",
  "name": "ICRYPT_RNG.scenario",
  "steps": [
    {
      "id": "1 CRYPT RANDOM NUMBER GENERATOR",
      "name": "1 CRYPT RANDOM NUMBER GENERATOR",
      "user_confirm": false,
      "is_loop": false,
      "loop_count": 0,
      "loop_sleep": 0,
      "description": "It generates random numbers",
      "cmd_id": "ICRYPT_RNG",
      "result": "GEDI_RET_OK",
      "params": [
        {
          "name": "uiLen",
          "value_in": "5",
          "value_out": "0",
          "type": "IN",
          "use_regex": false
        },
        {
          "name": "abResult",
          "value_in": "0",
          "value_out": "[0-9A-Z]*",
          "type": "OUT",
          "use_regex": true
        }
      ]
    }
  ]
}