{
  "id": "ICRYPT_AESN",
  "description": "It executes encryption operation to AESN",
  "name": "ICRYPT_AESN.scenario",
  "steps": [
    {
      "id": "0 CRYPT AESN ENCRYPTION ECB",
      "name": "0 CRYPT AESN ENCRYPTION ECB",
      "user_confirm": false,
      "is_loop": false,
      "loop_count": 0,
      "loop_sleep": 0,
      "description": "It initializes the execution of encryption operation to ECB",
      "cmd_id": "ICRYPT_AESN",
      "result": "GEDI_RET_OK",
      "params": [
        {
          "name": "eOperation",
          "value_in": "0",
          "value_out": "0",
          "type": "IN",
          "use_regex": false
        },
        {
          "name": "abKey",
          "value_in": "0123456789012345678901234567890101234567890123456789012345678901",
          "value_out": "0",
          "type": "IN",
          "use_regex": false
        },
        {
          "name": "abIV",
          "value_in": "",
          "value_out": "0",
          "type": "IN",
          "use_regex": false
        },
        {
          "name": "abData",
          "value_in": "AAAAAAAAAAAAAAAAAAAAAAAAAAAAAAAABBBBBBBBBBBBBBBBBBBBBBBBBBBBBBBB",
          "value_out": "0",
          "type": "IN",
          "use_regex": false
        },
        {
          "name": "abResult",
          "value_in": "0",
          "value_out": "12AAF4AE2D315AC7E518FC32BE7EC73A791664EC66BCE369A2EA4852578C6686",
          "type": "OUT",
          "use_regex": false
        }
      ]
    },
    {
      "id": "1 CRYPT AESN ENCRYPTION CBC",
      "name": "1 CRYPT AESN ENCRYPTION CBC",
      "user_confirm": false,
      "is_loop": false,
      "loop_count": 0,
      "loop_sleep": 0,
      "description": "It executes AESN encryption operation to CBC",
      "cmd_id": "ICRYPT_AESN",
      "result": "GEDI_RET_OK",
      "params": [
        {
          "name": "eOperation",
          "value_in": "0",
          "value_out": "0",
          "type": "IN",
          "use_regex": false
        },
        {
          "name": "abKey",
          "value_in": "0123456789012345678901234567890101234567890123456789012345678901",
          "value_out": "0",
          "type": "IN",
          "use_regex": false
        },
        {
          "name": "abIV",
          "value_in": "11111111111111111111111111111111",
          "value_out": "0",
          "type": "IN",
          "use_regex": false
        },
        {
          "name": "abData",
          "value_in": "AAAAAAAAAAAAAAAAAAAAAAAAAAAAAAAABBBBBBBBBBBBBBBBBBBBBBBBBBBBBBBB",
          "value_out": "0",
          "type": "IN",
          "use_regex": false
        },
        {
          "name": "abResult",
          "value_in": "0",
          "value_out": "791664EC66BCE369A2EA4852578C668638405B66FD41FAA30F941BD1AAAFADB7",
          "type": "OUT",
          "use_regex": false
        }
      ]
    },
    {
      "id": "2 CRYPT AESN DECRYPTION CBC",
      "name": "2 CRYPT AESN DECRYPTION CBC",
      "user_confirm": false,
      "is_loop": false,
      "loop_count": 0,
      "loop_sleep": 0,
      "description": "It executes AESN decryption operation to CBC",
      "cmd_id": "ICRYPT_AESN",
      "result": "GEDI_RET_OK",
      "params": [
        {
          "name": "eOperation",
          "value_in": "1",
          "value_out": "0",
          "type": "IN",
          "use_regex": false
        },
        {
          "name": "abKey",
          "value_in": "0123456789012345678901234567890101234567890123456789012345678901",
          "value_out": "0",
          "type": "IN",
          "use_regex": false
        },
        {
          "name": "abIV",
          "value_in": "11111111111111111111111111111111",
          "value_out": "0",
          "type": "IN",
          "use_regex": false
        },
        {
          "name": "abData",
          "value_in": "791664EC66BCE369A2EA4852578C668638405B66FD41FAA30F941BD1AAAFADB7",
          "value_out": "0",
          "type": "IN",
          "use_regex": false
        },
        {
          "name": "abResult",
          "value_in": "0",
          "value_out": "AAAAAAAAAAAAAAAAAAAAAAAAAAAAAAAABBBBBBBBBBBBBBBBBBBBBBBBBBBBBBBB",
          "type": "OUT",
          "use_regex": false
        }
      ]
    }
  ]
}