{
  "id": "CLOCK_FactoryClock",
  "name": "CLOCK_FactoryClock.scenario",
  "description": "Test of factory's RTC configuration",
  "steps": [
    {
      "id": "1-ICLOCK_RTCFSet",
      "name": "1-ICLOCK_RTCFSet",
      "user_confirm": false,
      "is_loop": false,
      "loop_count": 0,
      "loop_sleep": 0,
      "description": "It sets second, minute, hour, day, month, year on RTCF",
      "cmd_id": "ICLOCK_RTCFSet",
      "result": "GEDI_RET_OK",
      "params": [
        {
          "name": "bSecond",
          "value_in": "0",
          "value_out": "",
          "type": "IN",
          "use_regex": false
        },
        {
          "name": "bMinute",
          "value_in": "55",
          "value_out": "",
          "type": "IN",
          "use_regex": false
        },
        {
          "name": "bHour",
          "value_in": "12",
          "value_out": "",
          "type": "IN",
          "use_regex": false
        },
        {
          "name": "bDay",
          "value_in": "11",
          "value_out": "",
          "type": "IN",
          "use_regex": false
        },
        {
          "name": "bMonth",
          "value_in": "1",
          "value_out": "",
          "type": "IN",
          "use_regex": false
        },
        {
          "name": "bYear",
          "value_in": "21",
          "value_out": "",
          "type": "IN",
          "use_regex": false
        },
        {
          "name": "bDoW",
          "value_in": "1",
          "value_out": "",
          "type": "IN",
          "use_regex": false
        }
      ]
    },
    {
      "id": "4 ICLOCK_RTCFGet",
      "name": "4 ICLOCK_RTCFGet",
      "user_confirm": false,
      "is_loop": false,
      "loop_count": 0,
      "loop_sleep": 0,
      "description": "It gets values of second, minute, hour, day, month, year on RTCF",
      "cmd_id": "ICLOCK_RTCFGet",
      "result": "GEDI_RET_OK",
      "params": [
        {
          "name": "bSecond",
          "value_in": "",
          "value_out": "[0-9]{1,2}",
          "type": "OUT",
          "use_regex": true
        },
        {
          "name": "bMinute",
          "value_in": "",
          "value_out": "55",
          "type": "OUT",
          "use_regex": false
        },
        {
          "name": "bHour",
          "value_in": "",
          "value_out": "12",
          "type": "OUT",
          "use_regex": false
        },
        {
          "name": "bDay",
          "value_in": "",
          "value_out": "11",
          "type": "OUT",
          "use_regex": false
        },
        {
          "name": "bMonth",
          "value_in": "",
          "value_out": "1",
          "type": "OUT",
          "use_regex": false
        },
        {
          "name": "bYear",
          "value_in": "",
          "value_out": "21",
          "type": "OUT",
          "use_regex": false
        },
        {
          "name": "bDoW",
          "value_in": "",
          "value_out": "1",
          "type": "OUT",
          "use_regex": false
        }
      ]
    }
  ]
}