{
  "id": "IKMS_SavePlainKeyAES",
  "name": "IKMS_SavePlainKeyAES.scenario",
  "description": "It saves AES keys, checks for presence and get KCV",
  "steps": [
    {
      "id": "01-IKMS_Reset",
      "name": "01-IKMS_Reset",
      "user_confirm": false,
      "is_loop": false,
      "loop_count": 0,
      "loop_sleep": 0,
      "cmd_id": "IKMS_Reset",
      "description": "It resets KMS erasing all keys",
   "result": "GEDI_RET_KMS_ERROR",
      "params": []
    },
    {
      "id": "02-IKMS_SavePlainKey",
      "name": "02- IKMS_SavePlainKey(AES16/PIN/256)",
      "user_confirm": false,
      "is_loop": false,
      "loop_count": 0,
      "loop_sleep": 0,
      "description": "It saves a key (AES16/PIN/256)",
      "cmd_id": "IKMS_SavePlainKey",
      "result": "GEDI_RET_KMS_ERROR",
      "params": [
        {
          "name": "bVersion",
          "value_in": "0",
          "value_out": "",
          "type": "IN",
          "use_regex": false
        },
        {
          "name": "eKeyType",
          "value_in": "4",
          "value_out": "",
          "type": "IN",
          "use_regex": false
        },
        {
          "name": "eKeyPurpose",
          "value_in": "0",
          "value_out": "",
          "type": "IN",
          "use_regex": false
        },
        {
          "name": "uiKeyIndex",
          "value_in": "256",
          "value_out": "",
          "type": "IN",
          "use_regex": false
        },
        {
          "name": "abKey",
          "value_in": "1F4AE6AF03D6A9D47BEAF8AD36EB8030",
          "value_out": "",
          "type": "IN",
          "use_regex": false
        },
        {
          "name": "abKSN",
          "value_in": "0",
          "value_out": "",
          "type": "IN",
          "use_regex": false
        }
      ]
    },
    {
      "id": "03-IKMS_SavePlainKey",
      "name": "03-IKMS_SavePlainKey(AES16/DATA/150)",
      "user_confirm": false,
      "is_loop": false,
      "loop_count": 0,
      "loop_sleep": 0,
      "description": "It saves a key (AES16/DATA/150)",
      "cmd_id": "IKMS_SavePlainKey",
   "result": "GEDI_RET_KMS_ERROR",
      "params": [
        {
          "name": "bVersion",
          "value_in": "0",
          "value_out": "",
          "type": "IN",
          "use_regex": false
        },
        {
          "name": "eKeyType",
          "value_in": "4",
          "value_out": "",
          "type": "IN",
          "use_regex": false
        },
        {
          "name": "eKeyPurpose",
          "value_in": "1",
          "value_out": "",
          "type": "IN",
          "use_regex": false
        },
        {
          "name": "uiKeyIndex",
          "value_in": "150",
          "value_out": "",
          "type": "IN",
          "use_regex": false
        },
        {
          "name": "abKey",
          "value_in": "926DE25F91D28CD1B3F50434ED0E32D3",
          "value_out": "",
          "type": "IN",
          "use_regex": false
        },
        {
          "name": "abKSN",
          "value_in": "0",
          "value_out": "",
          "type": "IN",
          "use_regex": false
        }
      ]
    },
    {
      "id": "04-IKMS_SavePlainKey",
      "name": "04-IKMS_SavePlainKey(AES16/KEK/89)",
      "user_confirm": false,
      "is_loop": false,
      "loop_count": 0,
      "loop_sleep": 0,
      "description": "It saves a key (AES16/KEK/89))",
      "cmd_id": "IKMS_SavePlainKey",
   "result": "GEDI_RET_KMS_ERROR",
      "params": [
        {
          "name": "bVersion",
          "value_in": "0",
          "value_out": "",
          "type": "IN",
          "use_regex": false
        },
        {
          "name": "eKeyType",
          "value_in": "4",
          "value_out": "",
          "type": "IN",
          "use_regex": false
        },
        {
          "name": "eKeyPurpose",
          "value_in": "2",
          "value_out": "",
          "type": "IN",
          "use_regex": false
        },
        {
          "name": "uiKeyIndex",
          "value_in": "89",
          "value_out": "",
          "type": "IN",
          "use_regex": false
        },
        {
          "name": "abKey",
          "value_in": "DDA2B712C8788969964EAD54966ECA1D",
          "value_out": "",
          "type": "IN",
          "use_regex": false
        },
        {
          "name": "abKSN",
          "value_in": "0",
          "value_out": "",
          "type": "IN",
          "use_regex": false
        }
      ]
    },
    {
      "id": "05-IKMS_SavePlainKey",
      "name": "05-IKMS_SavePlainKey(AES24/DATA/65)",
      "user_confirm": false,
      "is_loop": false,
      "loop_count": 0,
      "loop_sleep": 0,
      "description": "It saves a key (AES24/DATA/65)",
      "cmd_id": "IKMS_SavePlainKey",
   "result": "GEDI_RET_KMS_ERROR",
      "params": [
        {
          "name": "bVersion",
          "value_in": "0",
          "value_out": "",
          "type": "IN",
          "use_regex": false
        },
        {
          "name": "eKeyType",
          "value_in": "4",
          "value_out": "",
          "type": "IN",
          "use_regex": false
        },
        {
          "name": "eKeyPurpose",
          "value_in": "1",
          "value_out": "",
          "type": "IN",
          "use_regex": false
        },
        {
          "name": "uiKeyIndex",
          "value_in": "65",
          "value_out": "",
          "type": "IN",
          "use_regex": false
        },
        {
          "name": "abKey",
          "value_in": "D1C8B97F1C9BDD645EAA0734A3BDD93B1B0F8A3157B15DBB",
          "value_out": "",
          "type": "IN",
          "use_regex": false
        },
        {
          "name": "abKSN",
          "value_in": "0",
          "value_out": "",
          "type": "IN",
          "use_regex": false
        }
      ]
    },
    {
      "id": "06-IKMS_SavePlainKey",
      "name": "06-IKMS_SavePlainKey(AES24/PIN/99)",
      "user_confirm": false,
      "is_loop": false,
      "loop_count": 0,
      "loop_sleep": 0,
      "description": "It saves a key (AES24/PIN/99)",
      "cmd_id": "IKMS_SavePlainKey",
   "result": "GEDI_RET_KMS_ERROR",
      "params": [
        {
          "name": "bVersion",
          "value_in": "0",
          "value_out": "",
          "type": "IN",
          "use_regex": false
        },
        {
          "name": "eKeyType",
          "value_in": "4",
          "value_out": "",
          "type": "IN",
          "use_regex": false
        },
        {
          "name": "eKeyPurpose",
          "value_in": "0",
          "value_out": "",
          "type": "IN",
          "use_regex": false
        },
        {
          "name": "uiKeyIndex",
          "value_in": "99",
          "value_out": "",
          "type": "IN",
          "use_regex": false
        },
        {
          "name": "abKey",
          "value_in": "D39DBF7882DB668786B0EF43EAE51C4D00C09A0F4A4028BB",
          "value_out": "",
          "type": "IN",
          "use_regex": false
        },
        {
          "name": "abKSN",
          "value_in": "0",
          "value_out": "",
          "type": "IN",
          "use_regex": false
        }
      ]
    },
    {
      "id": "07-IKMS_SavePlainKey",
      "name": "07-IKMS_SavePlainKey(AES24/KEK/60)",
      "user_confirm": false,
      "is_loop": false,
      "loop_count": 0,
      "loop_sleep": 0,
      "description": "It saves a key (AES24/KEK/60)",
      "cmd_id": "IKMS_SavePlainKey",
   "result": "GEDI_RET_KMS_ERROR",
      "params": [
        {
          "name": "bVersion",
          "value_in": "0",
          "value_out": "",
          "type": "IN",
          "use_regex": false
        },
        {
          "name": "eKeyType",
          "value_in": "4",
          "value_out": "",
          "type": "IN",
          "use_regex": false
        },
        {
          "name": "eKeyPurpose",
          "value_in": "2",
          "value_out": "",
          "type": "IN",
          "use_regex": false
        },
        {
          "name": "uiKeyIndex",
          "value_in": "60",
          "value_out": "",
          "type": "IN",
          "use_regex": false
        },
        {
          "name": "abKey",
          "value_in": "765790E75001EBB9FF5C83E32E154813DB2520B3D11AC679",
          "value_out": "",
          "type": "IN",
          "use_regex": false
        },
        {
          "name": "abKSN",
          "value_in": "0",
          "value_out": "",
          "type": "IN",
          "use_regex": false
        }
      ]
    },
    {
      "id": "08-IKMS_SavePlainKey",
      "name": "08-IKMS_SavePlainKey(AES32/KEK/70)",
      "user_confirm": false,
      "is_loop": false,
      "loop_count": 0,
      "loop_sleep": 0,
      "description": "It saves a key (AES32/KEK/70)",
      "cmd_id": "IKMS_SavePlainKey",
   "result": "GEDI_RET_KMS_ERROR",
      "params": [
        {
          "name": "bVersion",
          "value_in": "0",
          "value_out": "",
          "type": "IN",
          "use_regex": false
        },
        {
          "name": "eKeyType",
          "value_in": "4",
          "value_out": "",
          "type": "IN",
          "use_regex": false
        },
        {
          "name": "eKeyPurpose",
          "value_in": "2",
          "value_out": "",
          "type": "IN",
          "use_regex": false
        },
        {
          "name": "uiKeyIndex",
          "value_in": "70",
          "value_out": "",
          "type": "IN",
          "use_regex": false
        },
        {
          "name": "abKey",
          "value_in": "EB9E443D35AE45AB2830F8078F8084AAD3DE0F32FF08F9FEFCED2C613D17FF6F",
          "value_out": "",
          "type": "IN",
          "use_regex": false
        },
        {
          "name": "abKSN",
          "value_in": "0",
          "value_out": "",
          "type": "IN",
          "use_regex": false
        }
      ]
    },
    {
      "id": "09-IKMS_SavePlainKey",
      "name": "09-IKMS_SavePlainKey(AES32/DATA/52)",
      "user_confirm": false,
      "is_loop": false,
      "loop_count": 0,
      "loop_sleep": 0,
      "description": "It saves a key (AES32/DATA/52)",
      "cmd_id": "IKMS_SavePlainKey",
   "result": "GEDI_RET_KMS_ERROR",
      "params": [
        {
          "name": "bVersion",
          "value_in": "0",
          "value_out": "",
          "type": "IN",
          "use_regex": false
        },
        {
          "name": "eKeyType",
          "value_in": "4",
          "value_out": "",
          "type": "IN",
          "use_regex": false
        },
        {
          "name": "eKeyPurpose",
          "value_in": "1",
          "value_out": "",
          "type": "IN",
          "use_regex": false
        },
        {
          "name": "uiKeyIndex",
          "value_in": "52",
          "value_out": "",
          "type": "IN",
          "use_regex": false
        },
        {
          "name": "abKey",
          "value_in": "838DA83E75CF4D649B1826DD253D958C8A0F5ED76C3405E8C47C823364AF4DC6",
          "value_out": "",
          "type": "IN",
          "use_regex": false
        },
        {
          "name": "abKSN",
          "value_in": "0",
          "value_out": "",
          "type": "IN",
          "use_regex": false
        }
      ]
    },
    {
      "id": "10-IKMS_SavePlainKey",
      "name": "10-IKMS_SavePlainKey(AES32/PIN/80)",
      "user_confirm": false,
      "is_loop": false,
      "loop_count": 0,
      "loop_sleep": 0,
      "description": "It saves a key (AES32/PIN/80)",
      "cmd_id": "IKMS_SavePlainKey",
   "result": "GEDI_RET_KMS_ERROR",
      "params": [
        {
          "name": "bVersion",
          "value_in": "0",
          "value_out": "",
          "type": "IN",
          "use_regex": false
        },
        {
          "name": "eKeyType",
          "value_in": "4",
          "value_out": "",
          "type": "IN",
          "use_regex": false
        },
        {
          "name": "eKeyPurpose",
          "value_in": "0",
          "value_out": "",
          "type": "IN",
          "use_regex": false
        },
        {
          "name": "uiKeyIndex",
          "value_in": "80",
          "value_out": "",
          "type": "IN",
          "use_regex": false
        },
        {
          "name": "abKey",
          "value_in": "0B3F6599007E69123877D8E7DDF7D5137039EDA1A85A6EE34EEAEE042C5C4950",
          "value_out": "",
          "type": "IN",
          "use_regex": false
        },
        {
          "name": "abKSN",
          "value_in": "0",
          "value_out": "",
          "type": "IN",
          "use_regex": false
        }
      ]
    }
  ]
}