{
  "id": "IKMS_SavePlainKeyDUKPT-DES_ENHANCED_CUSTOMER",
  "name": "IKMS_SavePlainKeyDUKPT-DES.scenario",
  "description": "Scripts de nível ENHANCED  CUSTOMER devem retornar erro ao tentar executar comandos de engenharia e acesso Factory como RESET KMS e SavePlainKey.",
  "steps": [
    {
      "id": "01-IKMS_Reset",
      "name": "01-IKMS_Reset",
      "user_confirm": false,
      "is_loop": false,
      "loop_count": 0,
      "loop_sleep": 0,
      "description": "It resets KMS erasing all keys",
      "cmd_id": "IKMS_Reset",
            "result": "$RET_Savekey_Enhanced",
      "params": []
    },
    {
      "id": "02-IKMS_SavePlainKey",
      "name": "02-IKMS_SavePlainKey(DUKPT-DES/PIN/34)",
      "user_confirm": false,
      "is_loop": false,
      "loop_count": 0,
      "loop_sleep": 0,
      "description": "It tries to save a key (DUKPT-DES/PIN/34)",
      "cmd_id": "IKMS_SavePlainKey",
      "result": "$RET_Savekey_Enhanced_DES",
      "params": [
        {
          "name": "bVersion",
          "value_in": "0",
          "value_out": "",
          "type": "IN",
          "use_regex": false
        },
        {
          "name": "eKeyType",
          "value_in": "2",
          "value_out": "",
          "type": "IN",
          "use_regex": false
        },
        {
          "name": "eKeyPurpose",
          "value_in": "0",
          "value_out": "",
          "type": "IN",
          "use_regex": false
        },
        {
          "name": "uiKeyIndex",
          "value_in": "34",
          "value_out": "",
          "type": "IN",
          "use_regex": false
        },
        {
          "name": "abKey",
          "value_in": "FA688997178DB573",
          "value_out": "",
          "type": "IN",
          "use_regex": false
        },
        {
          "name": "abKSN",
          "value_in": "FFFF9876543210E00000",
          "value_out": "",
          "type": "IN",
          "use_regex": false
        }
      ]
    },
    {
      "id": "03-IKMS_SavePlainKey",
      "name": "03-IKMS_SavePlainKey(DUKPT-DES/DATA/112)",
      "user_confirm": false,
      "is_loop": false,
      "loop_count": 0,
      "loop_sleep": 0,
      "description": "It tries to save a key (DUKPT-DES/DATA/112)",
      "cmd_id": "IKMS_SavePlainKey",
      "result": "$RET_Savekey_Enhanced_DES",
      "params": [
        {
          "name": "bVersion",
          "value_in": "0",
          "value_out": "",
          "type": "IN",
          "use_regex": false
        },
        {
          "name": "eKeyType",
          "value_in": "2",
          "value_out": "",
          "type": "IN",
          "use_regex": false
        },
        {
          "name": "eKeyPurpose",
          "value_in": "1",
          "value_out": "",
          "type": "IN",
          "use_regex": false
        },
        {
          "name": "uiKeyIndex",
          "value_in": "112",
          "value_out": "",
          "type": "IN",
          "use_regex": false
        },
        {
          "name": "abKey",
          "value_in": "5921AD521B7AC2D2",
          "value_out": "",
          "type": "IN",
          "use_regex": false
        },
        {
          "name": "abKSN",
          "value_in": "FFFF9876543210E00000",
          "value_out": "",
          "type": "IN",
          "use_regex": false
        }
      ]
    },
    {
      "id": "04-IKMS_SavePlainKey",
      "name": "04-IKMS_SavePlainKey(DUKPT-DES/KEK/136)",
      "user_confirm": false,
      "is_loop": false,
      "loop_count": 0,
      "loop_sleep": 0,
      "cmd_id": "IKMS_SavePlainKey",
      "description": "It tries to save a key (DUKPT-DES/KEK/136)",
      "result": "$RET_Savekey_Enhanced_DES",
      "params": [
        {
          "name": "bVersion",
          "value_in": "0",
          "value_out": "",
          "type": "IN",
          "use_regex": false
        },
        {
          "name": "eKeyType",
          "value_in": "2",
          "value_out": "",
          "type": "IN",
          "use_regex": false
        },
        {
          "name": "eKeyPurpose",
          "value_in": "2",
          "value_out": "",
          "type": "IN",
          "use_regex": false
        },
        {
          "name": "uiKeyIndex",
          "value_in": "136",
          "value_out": "",
          "type": "IN",
          "use_regex": false
        },
        {
          "name": "abKey",
          "value_in": "C02AC8FA45B3AB71",
          "value_out": "",
          "type": "IN",
          "use_regex": false
        },
        {
          "name": "abKSN",
          "value_in": "FFFF9876543210E00000",
          "value_out": "",
          "type": "IN",
          "use_regex": false
        }
      ]
    },
    {
      "id": "05-IKMS_KeyPresenceTest",
      "name": "05-IKMS_KeyPresenceTest(DUKPT-DES/PIN/34)",
      "user_confirm": false,
      "is_loop": false,
      "loop_count": 0,
      "loop_sleep": 0,
      "description": "It checks key presence of (DUKPT-DES/PIN/34)",
      "cmd_id": "IKMS_KeyPresenceTest",
      "result": "$RET_Savekey_Enhanced_DES",
      "params": [
        {
          "name": "eKeyType",
          "value_in": "2",
          "value_out": "",
          "type": "IN",
          "use_regex": false
        },
        {
          "name": "eKeyPurpose",
          "value_in": "0",
          "value_out": "",
          "type": "IN",
          "use_regex": false
        },
        {
          "name": "uiKeyIndex",
          "value_in": "34",
          "value_out": "",
          "type": "IN",
          "use_regex": false
        }
      ]
    },
    {
      "id": "06-IKMS_KeyPresenceTest",
      "name": "06-IKMS_KeyPresenceTest(DUKPT-DES/DATA/112)",
      "user_confirm": false,
      "is_loop": false,
      "loop_count": 0,
      "loop_sleep": 0,
      "description": "It checks key presence of (DUKPT-DES/DATA/112)",
      "cmd_id": "IKMS_KeyPresenceTest",
      "result": "$RET_Savekey_Enhanced_DES",
      "params": [
        {
          "name": "eKeyType",
          "value_in": "2",
          "value_out": "",
          "type": "IN",
          "use_regex": false
        },
        {
          "name": "eKeyPurpose",
          "value_in": "1",
          "value_out": "",
          "type": "IN",
          "use_regex": false
        },
        {
          "name": "uiKeyIndex",
          "value_in": "112",
          "value_out": "",
          "type": "IN",
          "use_regex": false
        }
      ]
    },
    {
      "id": "07-IKMS_KeyPresenceTest",
      "name": "07-IKMS_KeyPresenceTest(DUKPT-DES/KEK/136)",
      "user_confirm": false,
      "is_loop": false,
      "loop_count": 0,
      "loop_sleep": 0,
      "description": "It checks key presence of (DUKPT-DES/KEK/136)",
      "cmd_id": "IKMS_KeyPresenceTest",
      "result": "$RET_Savekey_Enhanced_DES",
      "params": [
        {
          "name": "eKeyType",
          "value_in": "2",
          "value_out": "",
          "type": "IN",
          "use_regex": false
        },
        {
          "name": "eKeyPurpose",
          "value_in": "2",
          "value_out": "",
          "type": "IN",
          "use_regex": false
        },
        {
          "name": "uiKeyIndex",
          "value_in": "136",
          "value_out": "",
          "type": "IN",
          "use_regex": false
        }
      ]
    }
  ]
}