{
  "id": "SavePlainKeyDUKPT-TDES_ENHANCED_CUSTOMER",
  "name": "SavePlainKeyDUKPT-TDES.scenario",
  "description": "Scripts de nível ENHANCED CUSTOMER devem retornar erro ao tentar executar comandos de engenharia e acesso Factory como RESET KMS e SavePlainKey.",
  "steps": [
    {
      "id": "01-IKMS_Reset",
      "name": "01-IKMS_Reset",
      "user_confirm": false,
      "is_loop": false,
      "loop_count": 0,
      "loop_sleep": 0,
      "cmd_id": "IKMS_Reset",
      "description": "It resets KMS erasing all keys",
            "result": "$RET_Savekey_Enhanced",
      "params": []
    },
    {
      "id": "02-IKMS_SavePlainKey",
      "name": "02-IKMS_SavePlainKey(DUKPT-TDES/PIN/91)",
      "user_confirm": false,
      "is_loop": false,
      "loop_count": 0,
      "loop_sleep": 0,
      "description": "It saves a key (DUKPT-TDES/PIN/91)",
      "cmd_id": "IKMS_SavePlainKey",
            "result": "$RET_Savekey_Enhanced",
      "params": [
        {
          "name": "bVersion",
          "value_in": "0",
          "value_out": "",
          "type": "IN",
          "use_regex": false
        },
        {
          "name": "eKeyType",
          "value_in": "3",
          "value_out": "",
          "type": "IN",
          "use_regex": false
        },
        {
          "name": "eKeyPurpose",
          "value_in": "0",
          "value_out": "",
          "type": "IN",
          "use_regex": false
        },
        {
          "name": "uiKeyIndex",
          "value_in": "91",
          "value_out": "",
          "type": "IN",
          "use_regex": false
        },
        {
          "name": "abKey",
          "value_in": "FF005F540FCC5714CFA6A76139C6B7BD",
          "value_out": "",
          "type": "IN",
          "use_regex": false
        },
        {
          "name": "abKSN",
          "value_in": "FFFF9876543210000000",
          "value_out": "",
          "type": "IN",
          "use_regex": false
        }
      ]
    },
    {
      "id": "03-IKMS_SavePlainKey",
      "name": "03-IKMS_SavePlainKey(DUKPT-TDES/DATA/4)",
      "user_confirm": false,
      "is_loop": false,
      "loop_count": 0,
      "loop_sleep": 0,
      "description": "It saves a key (DUKPT-TDES/DATA/4)",
      "cmd_id": "IKMS_SavePlainKey",
            "result": "$RET_Savekey_Enhanced",
      "params": [
        {
          "name": "bVersion",
          "value_in": "0",
          "value_out": "",
          "type": "IN",
          "use_regex": false
        },
        {
          "name": "eKeyType",
          "value_in": "3",
          "value_out": "",
          "type": "IN",
          "use_regex": false
        },
        {
          "name": "eKeyPurpose",
          "value_in": "1",
          "value_out": "",
          "type": "IN",
          "use_regex": false
        },
        {
          "name": "uiKeyIndex",
          "value_in": "4",
          "value_out": "",
          "type": "IN",
          "use_regex": false
        },
        {
          "name": "abKey",
          "value_in": "E97BF487DC9427AB2EB3234D7C7B03D5",
          "value_out": "",
          "type": "IN",
          "use_regex": false
        },
        {
          "name": "abKSN",
          "value_in": "FFFF9876543210E00000",
          "value_out": "",
          "type": "IN",
          "use_regex": false
        }
      ]
    },
    {
      "id": "04-IKMS_SavePlainKey",
      "name": "04-IKMS_SavePlainKey(DUKPT-TDES/KEK/50)",
      "user_confirm": false,
      "is_loop": false,
      "loop_count": 0,
      "loop_sleep": 0,
      "description": "It saves a key (DUKPT-TDES/KEK/50)",
      "cmd_id": "IKMS_SavePlainKey",
            "result": "$RET_Savekey_Enhanced",
      "params": [
        {
          "name": "bVersion",
          "value_in": "0",
          "value_out": "",
          "type": "IN",
          "use_regex": false
        },
        {
          "name": "eKeyType",
          "value_in": "3",
          "value_out": "",
          "type": "IN",
          "use_regex": false
        },
        {
          "name": "eKeyPurpose",
          "value_in": "2",
          "value_out": "",
          "type": "IN",
          "use_regex": false
        },
        {
          "name": "uiKeyIndex",
          "value_in": "50",
          "value_out": "",
          "type": "IN",
          "use_regex": false
        },
        {
          "name": "abKey",
          "value_in": "C4A56B1F3EC7F5F06946A3DD4A37758F",
          "value_out": "",
          "type": "IN",
          "use_regex": false
        },
        {
          "name": "abKSN",
          "value_in": "12349876543210000000",
          "value_out": "",
          "type": "IN",
          "use_regex": false
        }
      ]
    },
    {
      "id": "05-IKMS_SavePlainKey",
      "name": "05-IKMS_SavePlainKey(DUKPT-TDES/SRED/51)",
      "user_confirm": false,
      "is_loop": false,
      "loop_count": 0,
      "loop_sleep": 0,
      "description": "It saves a key (DUKPT-TDES/SRED/51)",
      "cmd_id": "IKMS_SavePlainKey",
            "result": "$RET_Savekey_Enhanced",
      "params": [
        {
          "name": "bVersion",
          "value_in": "0",
          "value_out": "",
          "type": "IN",
          "use_regex": false
        },
        {
          "name": "eKeyType",
          "value_in": "3",
          "value_out": "",
          "type": "IN",
          "use_regex": false
        },
        {
          "name": "eKeyPurpose",
          "value_in": "3",
          "value_out": "",
          "type": "IN",
          "use_regex": false
        },
        {
          "name": "uiKeyIndex",
          "value_in": "51",
          "value_out": "",
          "type": "IN",
          "use_regex": false
        },
        {
          "name": "abKey",
          "value_in": "913D6239E0453D93D2D61FE4DE353D1B",
          "value_out": "",
          "type": "IN",
          "use_regex": false
        },
        {
          "name": "abKSN",
          "value_in": "00000000000000000000",
          "value_out": "",
          "type": "IN",
          "use_regex": false
        }
      ]
    },
    {
      "id": "06-IKMS_SavePlainKey",
      "name": "06-IKMS_SavePlainKey(DUKPT-TDES/AUTH/21)",
      "user_confirm": false,
      "is_loop": false,
      "loop_count": 0,
      "loop_sleep": 0,
      "description": "It saves a key (DUKPT-TDES/AUTH/21)",
      "cmd_id": "IKMS_SavePlainKey",
            "result": "$RET_Savekey_Enhanced",
      "params": [
        {
          "name": "bVersion",
          "value_in": "0",
          "value_out": "",
          "type": "IN",
          "use_regex": false
        },
        {
          "name": "eKeyType",
          "value_in": "3",
          "value_out": "",
          "type": "IN",
          "use_regex": false
        },
        {
          "name": "eKeyPurpose",
          "value_in": "4",
          "value_out": "",
          "type": "IN",
          "use_regex": false
        },
        {
          "name": "uiKeyIndex",
          "value_in": "21",
          "value_out": "",
          "type": "IN",
          "use_regex": false
        },
        {
          "name": "abKey",
          "value_in": "5238A9F2BF05D19F904390CEA18404A0",
          "value_out": "",
          "type": "IN",
          "use_regex": false
        },

        {
          "name": "abKSN",
          "value_in": "FFFFFFFFFFFFF0000000",                     
          "value_out": "",
          "type": "IN",
          "use_regex": false
        }
      ]
    },
    {
      "id": "07-IKMS_KeyPresenceTest",
      "name": "07-IKMS_KeyPresenceTest(DUKPT-TDES/PIN/91)",
      "user_confirm": false,
      "is_loop": false,
      "loop_count": 0,
      "loop_sleep": 0,
      "description": "It checks key presence of (DUKPT-TDES/PIN/91)",
      "cmd_id": "IKMS_KeyPresenceTest",
      "result": "GEDI_RET_TEST_FAIL",
      "params": [
        {
          "name": "eKeyType",
          "value_in": "3",
          "value_out": "",
          "type": "IN",
          "use_regex": false
        },
        {
          "name": "eKeyPurpose",
          "value_in": "0",
          "value_out": "",
          "type": "IN",
          "use_regex": false
        },
        {
          "name": "uiKeyIndex",
          "value_in": "91",
          "value_out": "",
          "type": "IN",
          "use_regex": false
        }
      ]
    },
    {
      "id": "08-IKMS_KeyPresenceTest",
      "name": "08-IKMS_KeyPresenceTest(DUKPT-TDES/DATA/4)",
      "user_confirm": false,
      "is_loop": false,
      "loop_count": 0,
      "loop_sleep": 0,
      "description": "It checks key presence of (DUKPT-TDES/DATA/4)",
      "cmd_id": "IKMS_KeyPresenceTest",
      "result": "GEDI_RET_TEST_FAIL",
      "params": [
        {
          "name": "eKeyType",
          "value_in": "3",
          "value_out": "",
          "type": "IN",
          "use_regex": false
        },
        {
          "name": "eKeyPurpose",
          "value_in": "1",
          "value_out": "",
          "type": "IN",
          "use_regex": false
        },
        {
          "name": "uiKeyIndex",
          "value_in": "4",
          "value_out": "",
          "type": "IN",
          "use_regex": false
        }
      ]
    },
    {
      "id": "09-IKMS_KeyPresenceTest",
      "name": "09-IKMS_KeyPresenceTest(DUKPT-TDES/KEK/50)",
      "user_confirm": false,
      "is_loop": false,
      "loop_count": 0,
      "loop_sleep": 0,
      "description": "It checks key presence of (DUKPT-TDES/KEK/50)",
      "cmd_id": "IKMS_KeyPresenceTest",
      "result": "GEDI_RET_TEST_FAIL",
      "params": [
        {
          "name": "eKeyType",
          "value_in": "3",
          "value_out": "",
          "type": "IN",
          "use_regex": false
        },
        {
          "name": "eKeyPurpose",
          "value_in": "2",
          "value_out": "",
          "type": "IN",
          "use_regex": false
        },
        {
          "name": "uiKeyIndex",
          "value_in": "50",
          "value_out": "",
          "type": "IN",
          "use_regex": false
        }
      ]
    },
    {
      "id": "10-IKMS_KeyPresenceTest",
      "name": "10-IKMS_KeyPresenceTest(DUKPT-TDES/SRED/51)",
      "user_confirm": false,
      "is_loop": false,
      "loop_count": 0,
      "loop_sleep": 0,
      "description": "It checks key presence of (DUKPT-TDES/KEK/51)",
      "cmd_id": "IKMS_KeyPresenceTest",
      "result": "GEDI_RET_TEST_FAIL",
      "params": [
        {
          "name": "eKeyType",
          "value_in": "3",
          "value_out": "",
          "type": "IN",
          "use_regex": false
        },
        {
          "name": "eKeyPurpose",
          "value_in": "3",
          "value_out": "",
          "type": "IN",
          "use_regex": false
        },
        {
          "name": "uiKeyIndex",
          "value_in": "51",
          "value_out": "",
          "type": "IN",
          "use_regex": false
        }
      ]
    },
    {
      "id": "11-IKMS_KeyPresenceTest",
      "name": "11-IKMS_KeyPresenceTest(DUKPT-TDES/AUTH/21)",
      "user_confirm": false,
      "is_loop": false,
      "loop_count": 0,
      "loop_sleep": 0,
      "description": "It checks key presence of (DUKPT-TDES/AUTH/21)",
      "cmd_id": "IKMS_KeyPresenceTest",
      "result": "GEDI_RET_TEST_FAIL",
      "params": [
        {
          "name": "eKeyType",
          "value_in": "3",
          "value_out": "",
          "type": "IN",
          "use_regex": false
        },
        {
          "name": "eKeyPurpose",
          "value_in": "4",
          "value_out": "",
          "type": "IN",
          "use_regex": false
        },
        {
          "name": "uiKeyIndex",
          "value_in": "21",
          "value_out": "",
          "type": "IN",
          "use_regex": false
        }
      ]
    }
  ]
}