{
  "id": "SavePlainKeyWithEqualsKeysForDifferentPurposes",
  "name": "SavePlainKeyWithEqualsKeysForDifferentPurposes.scenario",
  "description": "It Saves equal keys for different purposes and checks the return",
  "steps": [
    {
      "id": "01-IKMS_Reset",
      "name": "01-IKMS_Reset",
      "user_confirm": false,
      "is_loop": false,
      "loop_count": 0,
      "loop_sleep": 0,
      "description": "It resets KMS erasing all keys and expects a successful return",
      "cmd_id": "IKMS_Reset",
      "result": "GEDI_RET_OK",
      "params": []
    },
    {
      "id": "02-IKMS_SavePlainKey",
      "name": "02-IKMS_SavePlainKey(TDES/KEK/6)",
      "user_confirm": false,
      "is_loop": false,
      "loop_count": 0,
      "loop_sleep": 0,
      "description": "It saves a key (TDES/KEK/6) and expects a successful return",
      "cmd_id": "IKMS_SavePlainKey",
      "result": "GEDI_RET_OK",
      "params": [
        {
          "name": "bVersion",
          "value_in": "0",
          "value_out": "",
          "type": "IN",
          "use_regex": false
        },
        {
          "name": "eKeyType",
          "value_in": "1",
          "value_out": "",
          "type": "IN",
          "use_regex": false
        },
        {
          "name": "eKeyPurpose",
          "value_in": "2",
          "value_out": "",
          "type": "IN",
          "use_regex": false
        },
        {
          "name": "uiKeyIndex",
          "value_in": "6",
          "value_out": "",
          "type": "IN",
          "use_regex": false
        },
        {
          "name": "abKey",
          "value_in": "11111111111111111111111111111111",
          "value_out": "",
          "type": "IN",
          "use_regex": false
        },
        {
          "name": "abKSN",
          "value_in": "0",
          "value_out": "",
          "type": "IN",
          "use_regex": false
        }
      ]
    },
    {
      "id": "03-IKMS_SavePlainKey",
      "name": "03-IKMS_SavePlainKey(TDES/PIN/1)",
      "user_confirm": false,
      "is_loop": false,
      "loop_count": 0,
      "loop_sleep": 0,
      "cmd_id": "IKMS_SavePlainKey",
      "description": "It tries to save a key (TDES/PIN/1) with same value of (TDES/KEK/6) and not expects an error return for terminal Android (G700-335)",
      "result": "GEDI_RET_OK",
      "params": [
        {
          "name": "bVersion",
          "value_in": "0",
          "value_out": "",
          "type": "IN",
          "use_regex": false
        },
        {
          "name": "eKeyType",
          "value_in": "1",
          "value_out": "",
          "type": "IN",
          "use_regex": false
        },
        {
          "name": "eKeyPurpose",
          "value_in": "0",
          "value_out": "",
          "type": "IN",
          "use_regex": false
        },
        {
          "name": "uiKeyIndex",
          "value_in": "1",
          "value_out": "",
          "type": "IN",
          "use_regex": false
        },
        {
          "name": "abKey",
          "value_in": "10101010101010101010101010101010",
          "value_out": "",
          "type": "IN",
          "use_regex": false
        },
        {
          "name": "abKSN",
          "value_in": "0",
          "value_out": "",
          "type": "IN",
          "use_regex": false
        }
      ]
    },
    {
      "id": "04-IKMS_SavePlainKey",
      "name": "04-IKMS_SavePlainKey(TDES/DATA/2)",
      "user_confirm": false,
      "is_loop": false,
      "loop_count": 0,
      "loop_sleep": 0,
      "description": "It tries to save a key (TDES/DATA/2) with same value of (TDES/KEK/6) and not expects an error return for terminal Android (G700-335)",
      "cmd_id": "IKMS_SavePlainKey",
      "result": "GEDI_RET_OK",
      "params": [
        {
          "name": "bVersion",
          "value_in": "0",
          "value_out": "",
          "type": "IN",
          "use_regex": false
        },
        {
          "name": "eKeyType",
          "value_in": "1",
          "value_out": "",
          "type": "IN",
          "use_regex": false
        },
        {
          "name": "eKeyPurpose",
          "value_in": "1",
          "value_out": "",
          "type": "IN",
          "use_regex": false
        },
        {
          "name": "uiKeyIndex",
          "value_in": "2",
          "value_out": "",
          "type": "IN",
          "use_regex": false
        },
        {
          "name": "abKey",
          "value_in": "11111111111111111111111111111111",
          "value_out": "",
          "type": "IN",
          "use_regex": false
        },
        {
          "name": "abKSN",
          "value_in": "0",
          "value_out": "",
          "type": "IN",
          "use_regex": false
        }
      ]
    },
    {
      "id": "05-IKMS_SavePlainKey",
      "name": "05-IKMS_SavePlainKey(TDES/DATA/7)",
      "user_confirm": false,
      "is_loop": false,
      "loop_count": 0,
      "loop_sleep": 0,
      "description": "It saves a key (TDES/DATA/7) and expects a successful return",
      "cmd_id": "IKMS_SavePlainKey",
      "result": "GEDI_RET_OK",
      "params": [
        {
          "name": "bVersion",
          "value_in": "0",
          "value_out": "",
          "type": "IN",
          "use_regex": false
        },
        {
          "name": "eKeyType",
          "value_in": "1",
          "value_out": "",
          "type": "IN",
          "use_regex": false
        },
        {
          "name": "eKeyPurpose",
          "value_in": "1",
          "value_out": "",
          "type": "IN",
          "use_regex": false
        },
        {
          "name": "uiKeyIndex",
          "value_in": "7",
          "value_out": "",
          "type": "IN",
          "use_regex": false
        },
        {
          "name": "abKey",
          "value_in": "22222222222222222222222222222222",
          "value_out": "",
          "type": "IN",
          "use_regex": false
        },
        {
          "name": "abKSN",
          "value_in": "0",
          "value_out": "",
          "type": "IN",
          "use_regex": false
        }
      ]
    },
    {
      "id": "06-IKMS_SavePlainKey",
      "name": "06-IKMS_SavePlainKey(TDES/PIN/1)",
      "user_confirm": false,
      "is_loop": false,
      "loop_count": 0,
      "loop_sleep": 0,
      "description": "It tries to save a key (TDES/PIN/1) with same value of (TDES/DATA/7) and not expects an error return for terminal Android (G700-335)",
      "cmd_id": "IKMS_SavePlainKey",
      "result": "GEDI_RET_OK",
      "params": [
        {
          "name": "bVersion",
          "value_in": "0",
          "value_out": "",
          "type": "IN",
          "use_regex": false
        },
        {
          "name": "eKeyType",
          "value_in": "1",
          "value_out": "",
          "type": "IN",
          "use_regex": false
        },
        {
          "name": "eKeyPurpose",
          "value_in": "0",
          "value_out": "",
          "type": "IN",
          "use_regex": false
        },
        {
          "name": "uiKeyIndex",
          "value_in": "1",
          "value_out": "",
          "type": "IN",
          "use_regex": false
        },
        {
          "name": "abKey",
          "value_in": "22222222222222222222222222222222",
          "value_out": "",
          "type": "IN",
          "use_regex": false
        },
        {
          "name": "abKSN",
          "value_in": "0",
          "value_out": "",
          "type": "IN",
          "use_regex": false
        }
      ]
    },
    {
      "id": "07-IKMS_SavePlainKey",
      "name": "07-IKMS_SavePlainKey(TDES/KEK/3)",
      "user_confirm": false,
      "is_loop": false,
      "loop_count": 0,
      "loop_sleep": 0,
      "description": "It tries to save a key (TDES/KEK/3) with same value of (TDES/DATA/7) and not expects an error return for terminal Android (G700-335)",
      "cmd_id": "IKMS_SavePlainKey",
      "result": "GEDI_RET_OK",
      "params": [
        {
          "name": "bVersion",
          "value_in": "0",
          "value_out": "",
          "type": "IN",
          "use_regex": false
        },
        {
          "name": "eKeyType",
          "value_in": "1",
          "value_out": "",
          "type": "IN",
          "use_regex": false
        },
        {
          "name": "eKeyPurpose",
          "value_in": "2",
          "value_out": "",
          "type": "IN",
          "use_regex": false
        },
        {
          "name": "uiKeyIndex",
          "value_in": "3",
          "value_out": "",
          "type": "IN",
          "use_regex": false
        },
        {
          "name": "abKey",
          "value_in": "23232323232323232323232323232323",
          "value_out": "",
          "type": "IN",
          "use_regex": false
        },
        {
          "name": "abKSN",
          "value_in": "0",
          "value_out": "",
          "type": "IN",
          "use_regex": false
        }
      ]
    },
    {
      "id": "08-IKMS_SavePlainKey",
      "name": "08-IKMS_SavePlainKey(TDES/PIN/8)",
      "user_confirm": false,
      "is_loop": false,
      "loop_count": 0,
      "loop_sleep": 0,
      "description": "It saves a key (TDES/PIN/8) and expects a successful return",
      "cmd_id": "IKMS_SavePlainKey",
      "result": "GEDI_RET_OK",
      "params": [
        {
          "name": "bVersion",
          "value_in": "0",
          "value_out": "",
          "type": "IN",
          "use_regex": false
        },
        {
          "name": "eKeyType",
          "value_in": "1",
          "value_out": "",
          "type": "IN",
          "use_regex": false
        },
        {
          "name": "eKeyPurpose",
          "value_in": "0",
          "value_out": "",
          "type": "IN",
          "use_regex": false
        },
        {
          "name": "uiKeyIndex",
          "value_in": "8",
          "value_out": "",
          "type": "IN",
          "use_regex": false
        },
        {
          "name": "abKey",
          "value_in": "33333333333333333333333333333333",
          "value_out": "",
          "type": "IN",
          "use_regex": false
        },
        {
          "name": "abKSN",
          "value_in": "0",
          "value_out": "",
          "type": "IN",
          "use_regex": false
        }
      ]
    },
    {
      "id": "09-KMS_SavePlainKey",
      "name": "09-IKMS_SavePlainKey(TDES/KEK/3)",
      "user_confirm": false,
      "is_loop": false,
      "loop_count": 0,
      "loop_sleep": 0,
      "description": "It tries to save a key (TDES/KEK/3) with same value of (TDES/PIN/8) and not expects an error return for terminal Android (G700-335)",
      "cmd_id": "IKMS_SavePlainKey",
      "result": "GEDI_RET_OK",
      "params": [
        {
          "name": "bVersion",
          "value_in": "0",
          "value_out": "",
          "type": "IN",
          "use_regex": false
        },
        {
          "name": "eKeyType",
          "value_in": "1",
          "value_out": "",
          "type": "IN",
          "use_regex": false
        },
        {
          "name": "eKeyPurpose",
          "value_in": "2",
          "value_out": "",
          "type": "IN",
          "use_regex": false
        },
        {
          "name": "uiKeyIndex",
          "value_in": "3",
          "value_out": "",
          "type": "IN",
          "use_regex": false
        },
        {
          "name": "abKey",
          "value_in": "33333333333333333333333333333333",
          "value_out": "",
          "type": "IN",
          "use_regex": false
        },
        {
          "name": "abKSN",
          "value_in": "0",
          "value_out": "",
          "type": "IN",
          "use_regex": false
        }
      ]
    },
    {
      "id": "10-IKMS_SavePlainKey",
      "name": "10-IKMS_SavePlainKey(TDES/DATA/2)",
      "user_confirm": false,
      "is_loop": false,
      "loop_count": 0,
      "loop_sleep": 0,
      "description": "It tries to save a key (TDES/DATA/2) with same value of (TDES/PIN/8) and not expects an error return for terminal Android (G700-335)",
      "cmd_id": "IKMS_SavePlainKey",
      "result": "GEDI_RET_OK",
      "params": [
        {
          "name": "bVersion",
          "value_in": "0",
          "value_out": "",
          "type": "IN",
          "use_regex": false
        },
        {
          "name": "eKeyType",
          "value_in": "1",
          "value_out": "",
          "type": "IN",
          "use_regex": false
        },
        {
          "name": "eKeyPurpose",
          "value_in": "1",
          "value_out": "",
          "type": "IN",
          "use_regex": false
        },
        {
          "name": "uiKeyIndex",
          "value_in": "2",
          "value_out": "",
          "type": "IN",
          "use_regex": false
        },
        {
          "name": "abKey",
          "value_in": "32323232323232323232323232323232",
          "value_out": "",
          "type": "IN",
          "use_regex": false
        },
        {
          "name": "abKSN",
          "value_in": "0",
          "value_out": "",
          "type": "IN",
          "use_regex": false
        }
      ]
    }
  ]
}