{
  "id": "SavePlainKeyDES_ENHANCED_CUSTOMER",
  "name": "IKMS_SavePlainKey_KeyPresenceTest_and_KCVGet_DES.scenario",
  "description": "Scripts de nível ENHANCED CUSTOMER devem retornar erro ao tentar executar comandos de engenharia e acesso Factory como RESET KMS e SavePlainKey.",
  "steps": [
    {
      "id": "01 - IKMS_Reset",
      "name": "01 - IKMS_Reset",
      "user_confirm": false,
      "is_loop": false,
      "loop_count": 0,
      "loop_sleep": 0,
      "description": "It resets KMS erasing all keys",
      "cmd_id": "IKMS_Reset",
            "result": "$RET_Savekey_Enhanced",
      "params": []
    },
    {
      "id": "02-IKMS_SavePlainKey",
      "name": "02-IKMS_SavePlainKey salva a chave (DES/PIN/0)",
      "user_confirm": false,
      "is_loop": false,
      "loop_count": 0,
      "loop_sleep": 0,
      "description": "It tries to save a key (DES/PIN/0)",
      "cmd_id": "IKMS_SavePlainKey",
      "result": "$RET_Savekey_Enhanced_DES",
      "params": [
        {
          "name": "bVersion",
          "value_in": "0",
          "value_out": "",
          "type": "IN",
          "use_regex": false
        },
        {
          "name": "eKeyType",
          "value_in": "0",
          "value_out": "",
          "type": "IN",
          "use_regex": false
        },
        {
          "name": "eKeyPurpose",
          "value_in": "0",
          "value_out": "",
          "type": "IN",
          "use_regex": false
        },
        {
          "name": "uiKeyIndex",
          "value_in": "0",
          "value_out": "",
          "type": "IN",
          "use_regex": false
        },
        {
          "name": "abKey",
          "value_in": "D570C23DDF86D0F4",
          "value_out": "",
          "type": "IN",
          "use_regex": false
        },
        {
          "name": "abKSN",
          "value_in": "0",
          "value_out": "",
          "type": "IN",
          "use_regex": false
        }
      ]
    },
    {
      "id": "03-IKMS_SavePlainKey ",
      "name": "03-IKMS_SavePlainKey(DES/DATA/12)",
      "user_confirm": false,
      "is_loop": false,
      "loop_count": 0,
      "loop_sleep": 0,
      "description": "It tries to save a key (DES/DATA/12)",
      "cmd_id": "IKMS_SavePlainKey",
            "result": "$RET_Savekey_Enhanced_DES",
      "params": [
        {
          "name": "bVersion",
          "value_in": "0",
          "value_out": "",
          "type": "IN",
          "use_regex": false
        },
        {
          "name": "eKeyType",
          "value_in": "0",
          "value_out": "",
          "type": "IN",
          "use_regex": false
        },
        {
          "name": "eKeyPurpose",
          "value_in": "1",
          "value_out": "",
          "type": "IN",
          "use_regex": false
        },
        {
          "name": "uiKeyIndex",
          "value_in": "12",
          "value_out": "",
          "type": "IN",
          "use_regex": false
        },
        {
          "name": "abKey",
          "value_in": "1E1C9E7309D38238",
          "value_out": "",
          "type": "IN",
          "use_regex": false
        },
        {
          "name": "abKSN",
          "value_in": "0",
          "value_out": "",
          "type": "IN",
          "use_regex": false
        }
      ]
    },
    {
      "id": "04-IKMS_SavePlainKey",
      "name": "04-IKMS_SavePlainKey salva a chave (DES/KEK/136)",
      "user_confirm": false,
      "is_loop": false,
      "loop_count": 0,
      "loop_sleep": 0,
      "description": "It tries to save a key (DES/KEK/136)",
      "cmd_id": "IKMS_SavePlainKey",
            "result": "$RET_Savekey_Enhanced_DES",
      "params": [
        {
          "name": "bVersion",
          "value_in": "0",
          "value_out": "",
          "type": "IN",
          "use_regex": false
        },
        {
          "name": "eKeyType",
          "value_in": "0",
          "value_out": "",
          "type": "IN",
          "use_regex": false
        },
        {
          "name": "eKeyPurpose",
          "value_in": "2",
          "value_out": "",
          "type": "IN",
          "use_regex": false
        },
        {
          "name": "uiKeyIndex",
          "value_in": "136",
          "value_out": "",
          "type": "IN",
          "use_regex": false
        },
        {
          "name": "abKey",
          "value_in": "51515D964D080D6C",
          "value_out": "",
          "type": "IN",
          "use_regex": false
        },
        {
          "name": "abKSN",
          "value_in": "0",
          "value_out": "",
          "type": "IN",
          "use_regex": false
        }
      ]
    },
    {
      "id": "05-IKMS_KeyPresenceTest",
      "name": "05-IKMS_KeyPresenceTest (DES/PIN/0)",
      "user_confirm": false,
      "is_loop": false,
      "loop_count": 0,
      "loop_sleep": 0,
      "description": "It checks key presence of (DES/PIN/0)",
      "cmd_id": "IKMS_KeyPresenceTest",
      "result": "$RET_Savekey_Enhanced_DES",
      "params": [
        {
          "name": "eKeyType",
          "value_in": "0",
          "value_out": "",
          "type": "IN",
          "use_regex": false
        },
        {
          "name": "eKeyPurpose",
          "value_in": "0",
          "value_out": "",
          "type": "IN",
          "use_regex": false
        },
        {
          "name": "uiKeyIndex",
          "value_in": "0",
          "value_out": "0",
          "type": "IN",
          "use_regex": false
        }
      ]
    },
    {
      "id": "06-IKMS_KeyPresenceTest",
      "name": "06-IKMS_KeyPresenceTest(DES/DATA/12)",
      "user_confirm": false,
      "is_loop": false,
      "loop_count": 0,
      "loop_sleep": 0,
      "description": "It checks key presence of (DES/DATA/12)",
      "cmd_id": "IKMS_KeyPresenceTest",
      "result": "$RET_Savekey_Enhanced_DES",
      "params": [
        {
          "name": "eKeyType",
          "value_in": "0",
          "value_out": "",
          "type": "IN",
          "use_regex": false
        },
        {
          "name": "eKeyPurpose",
          "value_in": "1",
          "value_out": "",
          "type": "IN",
          "use_regex": false
        },
        {
          "name": "uiKeyIndex",
          "value_in": "12",
          "value_out": "",
          "type": "IN",
          "use_regex": false
        }
      ]
    },
    {
      "id": "07-IKMS_KeyPresenceTest",
      "name": "07-IKMS_KeyPresenceTest(DES/KEK/136)",
      "user_confirm": false,
      "is_loop": false,
      "loop_count": 0,
      "loop_sleep": 0,
      "description": "It checks key presence  of (DES/KEK/136)",
      "cmd_id": "IKMS_KeyPresenceTest",
      "result": "$RET_Savekey_Enhanced_DES",
      "params": [
        {
          "name": "eKeyType",
          "value_in": "0",
          "value_out": "",
          "type": "IN",
          "use_regex": false
        },
        {
          "name": "eKeyPurpose",
          "value_in": "2",
          "value_out": "",
          "type": "IN",
          "use_regex": false
        },
        {
          "name": "uiKeyIndex",
          "value_in": "136",
          "value_out": "",
          "type": "IN",
          "use_regex": false
        }
      ]
    }
	
  ]
}