{
  "id": "clock",
  "name": "clock_payment.feature",
  "description": "Features related to CLOCK",
  "flags": [
    "GPOS700X",
    "GPOS700mini",
    "GPOS700",
    "GPOS720",
    "GPOS760",
    "GPOS780"
  ],
  "scenarios": [
    
    {
      "path": "scenarios/CLOCK/CLOCK_UserClock_payment.scenario.json"
    },
    {
      "path": "scenarios/CLOCK/CLOCK_FactoryClock_payment.scenario.json"
    },
    {
      "path": "scenarios/CLOCK/CLOCK_TimeZoneSet.scenario.json"
    },
    {
      "path": "scenarios/CLOCK/CLOCK_ScheduledReboot.scenario.json"
    }
  ]
}
