{
  "id": "crypt",
  "name": "crypt.feature",
  "description": "Features related to CRYPT",
  "scenarios": 
  [
	{"path": "scenarios/CRYPT/ICRYPT_RSA.scenario.json"},
	{"path": "scenarios/CRYPT/ICRYPT_RNG.scenario.json"},
	{"path": "scenarios/CRYPT/ICRYPT_DES.scenario.json"},
	{"path": "scenarios/CRYPT/ICRYPT_SHA1.scenario.json"},
	{"path": "scenarios/CRYPT/ICRYPT_AESN.scenario.json"},
	{"path": "scenarios/CRYPT/ICRYPT_AES.scenario.json"}
  ]  
}
  