{
  "id": "info",
  "name": "info_payment.feature",
  "description": "Features related to INFO",
  "scenarios": 
  [
    {"path": "scenarios/INFO/INFO_ModuleInfoGet.scenario.json"},
    {"path": "scenarios/INFO/INFO_ControlNumberGet.scenario.json"},
    {"path": "scenarios/INFO/INFO_FirmwareVersionGet.scenario.json"},
    {"path": "scenarios/INFO/INFO_ProductNameGet.scenario.json"}
  ]  
}
  