{
  "id": "info",
  "name": "info.feature",
  "description": "Features related to INFO",
  "flags": [
    "GPOS700X",
    "GPOS700mini",
    "GPOS700",
    "GPOS720",
    "GPOS760",
    "GPOS780"
  ],
  "scenarios": 
  [
    {"path": "scenarios/INFO/INFO_ModuleInfo-GPOS760.scenario.json"},
    {"path": "scenarios/INFO/INFO_ControlNumberSet.scenario.json"},
    {"path": "scenarios/INFO/INFO_ControlNumberGet.scenario.json"},
    {"path": "scenarios/INFO/INFO_FirmwareVersionGet.scenario.json"},
    {"path": "scenarios/INFO/INFO_ProcessorIDGet.scenario.json"},
    {"path": "scenarios/INFO/INFO_Tamper.scenario.json"},
    {"path": "scenarios/INFO/INFO_ProductNameGet.scenario.json"},
    {"path": "scenarios/INFO/INFO_ImgVersionNumberGet.scenario.json"}
    ]  

}
  