{
  "id": "msr",
  "name": "msr.feature",
  "description": "Features related to MSR",
  "scenarios": [
    {
      "path": "scenarios/MSR/IMSR_Read e IMSR_LastErrorGet_T1_T2 _e_T3_OK.scenario.json"
    },
    {
      "path": "scenarios/MSR/IMSR_Read e IMSR_LastErrorGet_T1_T2_e_T3_com_LCR_inválido.scenario.json"
    },
    {
      "path": "scenarios/MSR/IMSR_Read e IMSR_LastErrorGet_T1_OK_e_T2_erro_de_LCR.scenario.json"
    },
    {
      "path": "scenarios/MSR/MSR_Read e IMSR_LastErrorGet_T2_OK_e_T3_com_erro_no_LRC.scenario.json"
    },
    {
      "path": "scenarios/MSR/IMSR_Read e IMSR_LastErrorGet_T2_OK.scenario.json"
    },
    {
      "path": "scenarios/MSR/IMSR_Read e IMSR_LastErrorGet_T1_OK.scenario.json"
    },
    {
      "path": "scenarios/MSR/IMSR_Read e IMSR_LastErrorGett Validacao Manual.scenario.json"
    }
  ]
}