{
  "id": "pm",
  "name": "pm.feature",
  "description": "Features related to Program Manager",
  "flags": [
    "GPOS700X",
    "GPOS700mini",
    "GPOS700",
    "GPOS720",
    "GPOS760",
    "GPOS780"
  ],
  "scenarios": [
    {
      "path": "scenarios/PM/IPM_ApDelete.scenario.json"
    },
    {
      "path": "scenarios/PM/IPM_ApDefaultSet.scenario.json"
    },
    {
      "path": "scenarios/PM/IPM_UpdateFromFile.scenario.json"
    },
    {
      "path": "scenarios/PM/IPM_ApDefaultSetDefaultLaucher.scenario.json"
    },
    {
      "path": "scenarios/PM/IPM_GetNameCrt_Enhanced_Custumer.scenario.json"
    }
  ]
}