{
  "id": "versionget.feature",
  "name": "versionget.feature",
  "description": "Features related to VersionGet",
  "scenarios": 
  [
    {"path": "scenarios/VersionGet/VersionGet.scenario.json"}
  ]  
}




